mcu_aes_non_accel.csv

;Scopy version,f4beeb1
;Exported on,mardi fvrier 24/02/2026
;Device,M2K
;Nr of samples,3200
;Sample rate,1000
;Tool,Oscilloscope
;Additional Information,
Sample,Time(S),CH1(V)
0,-1.6,0.210993
1,-1.599,0.210993
2,-1.598,0.210993
3,-1.597,0.210993
4,-1.596,0.210993
5,-1.595,0.210993
6,-1.594,0.210993
7,-1.593,0.210993
8,-1.592,0.210993
9,-1.591,0.210993
10,-1.59,0.210993
11,-1.589,0.210993
12,-1.588,0.210993
13,-1.587,0.210993
14,-1.586,0.210993
15,-1.585,0.210993
16,-1.584,0.210993
17,-1.583,0.214471
18,-1.582,0.21621
19,-1.581,0.393573
20,-1.58,0.42835
21,-1.579,0.292719
22,-1.578,0.219688
23,-1.577,0.210993
24,-1.576,0.210993
25,-1.575,0.210993
26,-1.574,0.210993
27,-1.573,0.210993
28,-1.572,0.210993
29,-1.571,0.210993
30,-1.57,0.210993
31,-1.569,0.210993
32,-1.568,0.210993
33,-1.567,0.210993
34,-1.566,0.210993
35,-1.565,0.210993
36,-1.564,0.210993
37,-1.563,0.210993
38,-1.562,0.210993
39,-1.561,0.210993
40,-1.56,0.210993
41,-1.559,0.210993
42,-1.558,0.210993
43,-1.557,0.210993
44,-1.556,0.210993
45,-1.555,0.210993
46,-1.554,0.210993
47,-1.553,0.210993
48,-1.552,0.210993
49,-1.551,0.210993
50,-1.55,0.210993
51,-1.549,0.210993
52,-1.548,0.210993
53,-1.547,0.210993
54,-1.546,0.210993
55,-1.545,0.210993
56,-1.544,0.210993
57,-1.543,0.210993
58,-1.542,0.210993
59,-1.541,0.210993
60,-1.54,0.210993
61,-1.539,0.210993
62,-1.538,0.210993
63,-1.537,0.210993
64,-1.536,0.210993
65,-1.535,0.210993
66,-1.534,0.210993
67,-1.533,0.214471
68,-1.532,0.212732
69,-1.531,0.393573
70,-1.53,0.42835
71,-1.529,0.290981
72,-1.528,0.219688
73,-1.527,0.210993
74,-1.526,0.210993
75,-1.525,0.210993
76,-1.524,0.210993
77,-1.523,0.210993
78,-1.522,0.210993
79,-1.521,0.210993
80,-1.52,0.210993
81,-1.519,0.210993
82,-1.518,0.210993
83,-1.517,0.210993
84,-1.516,0.210993
85,-1.515,0.210993
86,-1.514,0.210993
87,-1.513,0.210993
88,-1.512,0.210993
89,-1.511,0.210993
90,-1.51,0.210993
91,-1.509,0.210993
92,-1.508,0.210993
93,-1.507,0.210993
94,-1.506,0.210993
95,-1.505,0.210993
96,-1.504,0.210993
97,-1.503,0.210993
98,-1.502,0.210993
99,-1.501,0.210993
100,-1.5,0.210993
101,-1.499,0.210993
102,-1.498,0.210993
103,-1.497,0.210993
104,-1.496,0.210993
105,-1.495,0.210993
106,-1.494,0.210993
107,-1.493,0.210993
108,-1.492,0.210993
109,-1.491,0.210993
110,-1.49,0.210993
111,-1.489,0.210993
112,-1.488,0.210993
113,-1.487,0.210993
114,-1.486,0.210993
115,-1.485,0.210993
116,-1.484,0.210993
117,-1.483,0.214471
118,-1.482,0.214471
119,-1.481,0.391834
120,-1.48,0.42835
121,-1.479,0.292719
122,-1.478,0.221427
123,-1.477,0.210993
124,-1.476,0.210993
125,-1.475,0.210993
126,-1.474,0.210993
127,-1.473,0.210993
128,-1.472,0.210993
129,-1.471,0.210993
130,-1.47,0.210993
131,-1.469,0.210993
132,-1.468,0.210993
133,-1.467,0.210993
134,-1.466,0.210993
135,-1.465,0.210993
136,-1.464,0.210993
137,-1.463,0.210993
138,-1.462,0.210993
139,-1.461,0.210993
140,-1.46,0.210993
141,-1.459,0.210993
142,-1.458,0.210993
143,-1.457,0.210993
144,-1.456,0.210993
145,-1.455,0.210993
146,-1.454,0.210993
147,-1.453,0.210993
148,-1.452,0.210993
149,-1.451,0.210993
150,-1.45,0.210993
151,-1.449,0.210993
152,-1.448,0.210993
153,-1.447,0.210993
154,-1.446,0.210993
155,-1.445,0.210993
156,-1.444,0.210993
157,-1.443,0.210993
158,-1.442,0.210993
159,-1.441,0.210993
160,-1.44,0.210993
161,-1.439,0.210993
162,-1.438,0.210993
163,-1.437,0.210993
164,-1.436,0.210993
165,-1.435,0.210993
166,-1.434,0.210993
167,-1.433,0.214471
168,-1.432,0.212732
169,-1.431,0.391834
170,-1.43,0.426611
171,-1.429,0.294458
172,-1.428,0.221427
173,-1.427,0.210993
174,-1.426,0.210993
175,-1.425,0.210993
176,-1.424,0.210993
177,-1.423,0.210993
178,-1.422,0.210993
179,-1.421,0.210993
180,-1.42,0.210993
181,-1.419,0.210993
182,-1.418,0.210993
183,-1.417,0.210993
184,-1.416,0.210993
185,-1.415,0.210993
186,-1.414,0.210993
187,-1.413,0.210993
188,-1.412,0.210993
189,-1.411,0.210993
190,-1.41,0.210993
191,-1.409,0.210993
192,-1.408,0.210993
193,-1.407,0.210993
194,-1.406,0.210993
195,-1.405,0.210993
196,-1.404,0.210993
197,-1.403,0.210993
198,-1.402,0.210993
199,-1.401,0.210993
200,-1.4,0.210993
201,-1.399,0.210993
202,-1.398,0.210993
203,-1.397,0.210993
204,-1.396,0.210993
205,-1.395,0.210993
206,-1.394,0.210993
207,-1.393,0.210993
208,-1.392,0.210993
209,-1.391,0.210993
210,-1.39,0.210993
211,-1.389,0.210993
212,-1.388,0.210993
213,-1.387,0.210993
214,-1.386,0.210993
215,-1.385,0.210993
216,-1.384,0.210993
217,-1.383,0.214471
218,-1.382,0.21621
219,-1.381,0.391834
220,-1.38,0.430089
221,-1.379,0.294458
222,-1.378,0.221427
223,-1.377,0.210993
224,-1.376,0.210993
225,-1.375,0.210993
226,-1.374,0.210993
227,-1.373,0.210993
228,-1.372,0.210993
229,-1.371,0.210993
230,-1.37,0.210993
231,-1.369,0.210993
232,-1.368,0.210993
233,-1.367,0.210993
234,-1.366,0.210993
235,-1.365,0.210993
236,-1.364,0.210993
237,-1.363,0.210993
238,-1.362,0.210993
239,-1.361,0.210993
240,-1.36,0.210993
241,-1.359,0.210993
242,-1.358,0.210993
243,-1.357,0.210993
244,-1.356,0.210993
245,-1.355,0.210993
246,-1.354,0.210993
247,-1.353,0.210993
248,-1.352,0.210993
249,-1.351,0.210993
250,-1.35,0.210993
251,-1.349,0.210993
252,-1.348,0.210993
253,-1.347,0.210993
254,-1.346,0.210993
255,-1.345,0.210993
256,-1.344,0.210993
257,-1.343,0.210993
258,-1.342,0.210993
259,-1.341,0.210993
260,-1.34,0.210993
261,-1.339,0.210993
262,-1.338,0.210993
263,-1.337,0.210993
264,-1.336,0.210993
265,-1.335,0.210993
266,-1.334,0.210993
267,-1.333,0.214471
268,-1.332,0.214471
269,-1.331,0.393573
270,-1.33,0.42835
271,-1.329,0.292719
272,-1.328,0.219688
273,-1.327,0.210993
274,-1.326,0.210993
275,-1.325,0.210993
276,-1.324,0.210993
277,-1.323,0.210993
278,-1.322,0.210993
279,-1.321,0.210993
280,-1.32,0.210993
281,-1.319,0.210993
282,-1.318,0.210993
283,-1.317,0.210993
284,-1.316,0.210993
285,-1.315,0.210993
286,-1.314,0.210993
287,-1.313,0.210993
288,-1.312,0.210993
289,-1.311,0.210993
290,-1.31,0.210993
291,-1.309,0.210993
292,-1.308,0.210993
293,-1.307,0.210993
294,-1.306,0.210993
295,-1.305,0.210993
296,-1.304,0.210993
297,-1.303,0.210993
298,-1.302,0.210993
299,-1.301,0.210993
300,-1.3,0.210993
301,-1.299,0.210993
302,-1.298,0.210993
303,-1.297,0.210993
304,-1.296,0.210993
305,-1.295,0.210993
306,-1.294,0.210993
307,-1.293,0.210993
308,-1.292,0.210993
309,-1.291,0.210993
310,-1.29,0.210993
311,-1.289,0.210993
312,-1.288,0.210993
313,-1.287,0.210993
314,-1.286,0.210993
315,-1.285,0.210993
316,-1.284,0.210993
317,-1.283,0.214471
318,-1.282,0.21621
319,-1.281,0.395312
320,-1.28,0.430089
321,-1.279,0.290981
322,-1.278,0.219688
323,-1.277,0.210993
324,-1.276,0.210993
325,-1.275,0.210993
326,-1.274,0.210993
327,-1.273,0.210993
328,-1.272,0.210993
329,-1.271,0.210993
330,-1.27,0.210993
331,-1.269,0.210993
332,-1.268,0.210993
333,-1.267,0.210993
334,-1.266,0.210993
335,-1.265,0.210993
336,-1.264,0.210993
337,-1.263,0.210993
338,-1.262,0.210993
339,-1.261,0.210993
340,-1.26,0.210993
341,-1.259,0.210993
342,-1.258,0.210993
343,-1.257,0.210993
344,-1.256,0.210993
345,-1.255,0.210993
346,-1.254,0.210993
347,-1.253,0.210993
348,-1.252,0.210993
349,-1.251,0.210993
350,-1.25,0.210993
351,-1.249,0.210993
352,-1.248,0.210993
353,-1.247,0.210993
354,-1.246,0.210993
355,-1.245,0.210993
356,-1.244,0.210993
357,-1.243,0.210993
358,-1.242,0.210993
359,-1.241,0.210993
360,-1.24,0.210993
361,-1.239,0.210993
362,-1.238,0.210993
363,-1.237,0.210993
364,-1.236,0.210993
365,-1.235,0.210993
366,-1.234,0.210993
367,-1.233,0.214471
368,-1.232,0.21621
369,-1.231,0.393573
370,-1.23,0.42835
371,-1.229,0.289242
372,-1.228,0.219688
373,-1.227,0.212732
374,-1.226,0.210993
375,-1.225,0.210993
376,-1.224,0.210993
377,-1.223,0.210993
378,-1.222,0.210993
379,-1.221,0.210993
380,-1.22,0.210993
381,-1.219,0.210993
382,-1.218,0.210993
383,-1.217,0.210993
384,-1.216,0.210993
385,-1.215,0.210993
386,-1.214,0.210993
387,-1.213,0.210993
388,-1.212,0.210993
389,-1.211,0.210993
390,-1.21,0.210993
391,-1.209,0.210993
392,-1.208,0.210993
393,-1.207,0.210993
394,-1.206,0.210993
395,-1.205,0.210993
396,-1.204,0.210993
397,-1.203,0.210993
398,-1.202,0.210993
399,-1.201,0.210993
400,-1.2,0.210993
401,-1.199,0.210993
402,-1.198,0.210993
403,-1.197,0.210993
404,-1.196,0.210993
405,-1.195,0.210993
406,-1.194,0.210993
407,-1.193,0.210993
408,-1.192,0.210993
409,-1.191,0.210993
410,-1.19,0.210993
411,-1.189,0.210993
412,-1.188,0.210993
413,-1.187,0.210993
414,-1.186,0.210993
415,-1.185,0.210993
416,-1.184,0.210993
417,-1.183,0.214471
418,-1.182,0.21621
419,-1.181,0.39705
420,-1.18,0.42835
421,-1.179,0.289242
422,-1.178,0.221427
423,-1.177,0.210993
424,-1.176,0.210993
425,-1.175,0.210993
426,-1.174,0.210993
427,-1.173,0.210993
428,-1.172,0.210993
429,-1.171,0.210993
430,-1.17,0.210993
431,-1.169,0.210993
432,-1.168,0.210993
433,-1.167,0.210993
434,-1.166,0.210993
435,-1.165,0.210993
436,-1.164,0.210993
437,-1.163,0.210993
438,-1.162,0.210993
439,-1.161,0.210993
440,-1.16,0.210993
441,-1.159,0.210993
442,-1.158,0.210993
443,-1.157,0.210993
444,-1.156,0.210993
445,-1.155,0.210993
446,-1.154,0.210993
447,-1.153,0.210993
448,-1.152,0.210993
449,-1.151,0.210993
450,-1.15,0.210993
451,-1.149,0.210993
452,-1.148,0.210993
453,-1.147,0.210993
454,-1.146,0.210993
455,-1.145,0.210993
456,-1.144,0.210993
457,-1.143,0.210993
458,-1.142,0.210993
459,-1.141,0.210993
460,-1.14,0.210993
461,-1.139,0.210993
462,-1.138,0.210993
463,-1.137,0.210993
464,-1.136,0.210993
465,-1.135,0.210993
466,-1.134,0.210993
467,-1.133,0.214471
468,-1.132,0.21621
469,-1.131,0.39705
470,-1.13,0.426611
471,-1.129,0.285764
472,-1.128,0.219688
473,-1.127,0.212732
474,-1.126,0.210993
475,-1.125,0.210993
476,-1.124,0.210993
477,-1.123,0.210993
478,-1.122,0.210993
479,-1.121,0.210993
480,-1.12,0.210993
481,-1.119,0.210993
482,-1.118,0.210993
483,-1.117,0.210993
484,-1.116,0.210993
485,-1.115,0.210993
486,-1.114,0.210993
487,-1.113,0.210993
488,-1.112,0.210993
489,-1.111,0.210993
490,-1.11,0.210993
491,-1.109,0.210993
492,-1.108,0.210993
493,-1.107,0.210993
494,-1.106,0.210993
495,-1.105,0.210993
496,-1.104,0.210993
497,-1.103,0.210993
498,-1.102,0.210993
499,-1.101,0.210993
500,-1.1,0.210993
501,-1.099,0.210993
502,-1.098,0.210993
503,-1.097,0.210993
504,-1.096,0.210993
505,-1.095,0.210993
506,-1.094,0.210993
507,-1.093,0.210993
508,-1.092,0.210993
509,-1.091,0.210993
510,-1.09,0.210993
511,-1.089,0.210993
512,-1.088,0.210993
513,-1.087,0.210993
514,-1.086,0.210993
515,-1.085,0.210993
516,-1.084,0.210993
517,-1.083,0.212732
518,-1.082,0.219688
519,-1.081,0.395312
520,-1.08,0.417917
521,-1.079,0.410961
522,-1.078,0.437044
523,-1.077,0.438783
524,-1.076,0.440522
525,-1.075,0.437044
526,-1.074,0.442261
527,-1.073,0.437044
528,-1.072,0.442261
529,-1.071,0.438783
530,-1.07,0.440522
531,-1.069,0.440522
532,-1.068,0.440522
533,-1.067,0.438783
534,-1.066,0.440522
535,-1.065,0.438783
536,-1.064,0.440522
537,-1.063,0.438783
538,-1.062,0.438783
539,-1.061,0.438783
540,-1.06,0.438783
541,-1.059,0.438783
542,-1.058,0.438783
543,-1.057,0.438783
544,-1.056,0.438783
545,-1.055,0.438783
546,-1.054,0.438783
547,-1.053,0.438783
548,-1.052,0.438783
549,-1.051,0.438783
550,-1.05,0.438783
551,-1.049,0.440522
552,-1.048,0.438783
553,-1.047,0.440522
554,-1.046,0.438783
555,-1.045,0.440522
556,-1.044,0.438783
557,-1.043,0.442261
558,-1.042,0.437044
559,-1.041,0.440522
560,-1.04,0.421394
561,-1.039,0.381401
562,-1.038,0.390095
563,-1.037,0.384879
564,-1.036,0.390095
565,-1.035,0.388356
566,-1.034,0.388356
567,-1.033,0.388356
568,-1.032,0.388356
569,-1.031,0.391834
570,-1.03,0.384879
571,-1.029,0.391834
572,-1.028,0.384879
573,-1.027,0.390095
574,-1.026,0.388356
575,-1.025,0.388356
576,-1.024,0.388356
577,-1.023,0.388356
578,-1.022,0.391834
579,-1.021,0.384879
580,-1.02,0.390095
581,-1.019,0.388356
582,-1.018,0.388356
583,-1.017,0.388356
584,-1.016,0.388356
585,-1.015,0.391834
586,-1.014,0.384879
587,-1.013,0.391834
588,-1.012,0.388356
589,-1.011,0.388356
590,-1.01,0.388356
591,-1.009,0.388356
592,-1.008,0.388356
593,-1.007,0.388356
594,-1.006,0.391834
595,-1.005,0.384879
596,-1.004,0.391834
597,-1.003,0.388356
598,-1.002,0.388356
599,-1.001,0.388356
600,-1,0.388356
601,-0.999,0.391834
602,-0.998,0.384879
603,-0.997,0.391834
604,-0.996,0.388356
605,-0.995,0.388356
606,-0.994,0.388356
607,-0.993,0.388356
608,-0.992,0.388356
609,-0.991,0.388356
610,-0.99,0.391834
611,-0.989,0.384879
612,-0.988,0.391834
613,-0.987,0.388356
614,-0.986,0.388356
615,-0.985,0.388356
616,-0.984,0.388356
617,-0.983,0.390095
618,-0.982,0.384879
619,-0.981,0.391834
620,-0.98,0.384879
621,-0.979,0.390095
622,-0.978,0.388356
623,-0.977,0.388356
624,-0.976,0.390095
625,-0.975,0.384879
626,-0.974,0.391834
627,-0.973,0.384879
628,-0.972,0.391834
629,-0.971,0.388356
630,-0.97,0.388356
631,-0.969,0.388356
632,-0.968,0.388356
633,-0.967,0.391834
634,-0.966,0.384879
635,-0.965,0.391834
636,-0.964,0.384879
637,-0.963,0.390095
638,-0.962,0.388356
639,-0.961,0.388356
640,-0.96,0.388356
641,-0.959,0.388356
642,-0.958,0.391834
643,-0.957,0.384879
644,-0.956,0.391834
645,-0.955,0.388356
646,-0.954,0.388356
647,-0.953,0.388356
648,-0.952,0.388356
649,-0.951,0.391834
650,-0.95,0.384879
651,-0.949,0.388356
652,-0.948,0.433566
653,-0.947,0.33793
654,-0.946,0.219688
655,-0.945,0.210993
656,-0.944,0.207516
657,-0.943,0.207516
658,-0.942,0.207516
659,-0.941,0.207516
660,-0.94,0.207516
661,-0.939,0.207516
662,-0.938,0.207516
663,-0.937,0.207516
664,-0.936,0.207516
665,-0.935,0.207516
666,-0.934,0.207516
667,-0.933,0.207516
668,-0.932,0.202299
669,-0.931,0.282286
670,-0.93,0.287503
671,-0.929,0.214471
672,-0.928,0.209255
673,-0.927,0.207516
674,-0.926,0.207516
675,-0.925,0.207516
676,-0.924,0.207516
677,-0.923,0.207516
678,-0.922,0.207516
679,-0.921,0.207516
680,-0.92,0.207516
681,-0.919,0.207516
682,-0.918,0.207516
683,-0.917,0.210993
684,-0.916,0.214471
685,-0.915,0.343146
686,-0.914,0.217949
687,-0.913,0.209255
688,-0.912,0.209255
689,-0.911,0.207516
690,-0.91,0.207516
691,-0.909,0.207516
692,-0.908,0.207516
693,-0.907,0.207516
694,-0.906,0.207516
695,-0.905,0.207516
696,-0.904,0.207516
697,-0.903,0.207516
698,-0.902,0.209255
699,-0.901,0.197083
700,-0.9,0.334452
701,-0.899,0.242293
702,-0.898,0.210993
703,-0.897,0.207516
704,-0.896,0.207516
705,-0.895,0.207516
706,-0.894,0.207516
707,-0.893,0.207516
708,-0.892,0.207516
709,-0.891,0.207516
710,-0.89,0.207516
711,-0.889,0.207516
712,-0.888,0.207516
713,-0.887,0.207516
714,-0.886,0.205777
715,-0.885,0.264898
716,-0.884,0.301414
717,-0.883,0.214471
718,-0.882,0.209255
719,-0.881,0.207516
720,-0.88,0.207516
721,-0.879,0.207516
722,-0.878,0.207516
723,-0.877,0.207516
724,-0.876,0.207516
725,-0.875,0.207516
726,-0.874,0.207516
727,-0.873,0.207516
728,-0.872,0.207516
729,-0.871,0.210993
730,-0.87,0.205777
731,-0.869,0.350102
732,-0.868,0.221427
733,-0.867,0.210993
734,-0.866,0.207516
735,-0.865,0.207516
736,-0.864,0.207516
737,-0.863,0.207516
738,-0.862,0.207516
739,-0.861,0.207516
740,-0.86,0.207516
741,-0.859,0.207516
742,-0.858,0.207516
743,-0.857,0.207516
744,-0.856,0.209255
745,-0.855,0.197083
746,-0.854,0.325758
747,-0.853,0.252726
748,-0.852,0.214471
749,-0.851,0.207516
750,-0.85,0.207516
751,-0.849,0.207516
752,-0.848,0.207516
753,-0.847,0.207516
754,-0.846,0.207516
755,-0.845,0.207516
756,-0.844,0.207516
757,-0.843,0.207516
758,-0.842,0.207516
759,-0.841,0.207516
760,-0.84,0.209255
761,-0.839,0.24577
762,-0.838,0.315325
763,-0.837,0.21621
764,-0.836,0.209255
765,-0.835,0.207516
766,-0.834,0.207516
767,-0.833,0.207516
768,-0.832,0.207516
769,-0.831,0.207516
770,-0.83,0.207516
771,-0.829,0.207516
772,-0.828,0.207516
773,-0.827,0.207516
774,-0.826,0.207516
775,-0.825,0.209255
776,-0.824,0.210993
777,-0.823,0.247509
778,-0.822,0.209255
779,-0.821,0.207516
780,-0.82,0.212732
781,-0.819,0.214471
782,-0.818,0.207516
783,-0.817,0.207516
784,-0.816,0.207516
785,-0.815,0.209255
786,-0.814,0.238815
787,-0.813,0.381401
788,-0.812,0.395312
789,-0.811,0.39705
790,-0.81,0.39705
791,-0.809,0.39705
792,-0.808,0.39705
793,-0.807,0.39705
794,-0.806,0.39705
795,-0.805,0.39705
796,-0.804,0.39705
797,-0.803,0.39705
798,-0.802,0.39705
799,-0.801,0.395312
800,-0.8,0.398789
801,-0.799,0.257942
802,-0.798,0.21621
803,-0.797,0.212732
804,-0.796,0.210993
805,-0.795,0.210993
806,-0.794,0.210993
807,-0.793,0.210993
808,-0.792,0.210993
809,-0.791,0.210993
810,-0.79,0.210993
811,-0.789,0.210993
812,-0.788,0.210993
813,-0.787,0.210993
814,-0.786,0.210993
815,-0.785,0.210993
816,-0.784,0.210993
817,-0.783,0.210993
818,-0.782,0.210993
819,-0.781,0.210993
820,-0.78,0.210993
821,-0.779,0.210993
822,-0.778,0.210993
823,-0.777,0.210993
824,-0.776,0.210993
825,-0.775,0.210993
826,-0.774,0.210993
827,-0.773,0.210993
828,-0.772,0.210993
829,-0.771,0.210993
830,-0.77,0.210993
831,-0.769,0.210993
832,-0.768,0.210993
833,-0.767,0.210993
834,-0.766,0.210993
835,-0.765,0.210993
836,-0.764,0.210993
837,-0.763,0.210993
838,-0.762,0.210993
839,-0.761,0.210993
840,-0.76,0.210993
841,-0.759,0.210993
842,-0.758,0.210993
843,-0.757,0.210993
844,-0.756,0.210993
845,-0.755,0.210993
846,-0.754,0.210993
847,-0.753,0.210993
848,-0.752,0.210993
849,-0.751,0.214471
850,-0.75,0.209255
851,-0.749,0.377923
852,-0.748,0.42835
853,-0.747,0.308369
854,-0.746,0.219688
855,-0.745,0.212732
856,-0.744,0.210993
857,-0.743,0.210993
858,-0.742,0.210993
859,-0.741,0.210993
860,-0.74,0.210993
861,-0.739,0.210993
862,-0.738,0.210993
863,-0.737,0.210993
864,-0.736,0.210993
865,-0.735,0.210993
866,-0.734,0.210993
867,-0.733,0.210993
868,-0.732,0.210993
869,-0.731,0.210993
870,-0.73,0.210993
871,-0.729,0.210993
872,-0.728,0.210993
873,-0.727,0.210993
874,-0.726,0.210993
875,-0.725,0.210993
876,-0.724,0.210993
877,-0.723,0.210993
878,-0.722,0.210993
879,-0.721,0.210993
880,-0.72,0.210993
881,-0.719,0.210993
882,-0.718,0.210993
883,-0.717,0.210993
884,-0.716,0.210993
885,-0.715,0.210993
886,-0.714,0.210993
887,-0.713,0.210993
888,-0.712,0.210993
889,-0.711,0.210993
890,-0.71,0.210993
891,-0.709,0.210993
892,-0.708,0.210993
893,-0.707,0.210993
894,-0.706,0.210993
895,-0.705,0.210993
896,-0.704,0.210993
897,-0.703,0.210993
898,-0.702,0.210993
899,-0.701,0.214471
900,-0.7,0.207516
901,-0.699,0.377923
902,-0.698,0.430089
903,-0.697,0.308369
904,-0.696,0.221427
905,-0.695,0.212732
906,-0.694,0.210993
907,-0.693,0.210993
908,-0.692,0.210993
909,-0.691,0.210993
910,-0.69,0.210993
911,-0.689,0.210993
912,-0.688,0.210993
913,-0.687,0.210993
914,-0.686,0.210993
915,-0.685,0.210993
916,-0.684,0.210993
917,-0.683,0.210993
918,-0.682,0.210993
919,-0.681,0.210993
920,-0.68,0.210993
921,-0.679,0.210993
922,-0.678,0.210993
923,-0.677,0.210993
924,-0.676,0.210993
925,-0.675,0.210993
926,-0.674,0.210993
927,-0.673,0.210993
928,-0.672,0.210993
929,-0.671,0.210993
930,-0.67,0.210993
931,-0.669,0.210993
932,-0.668,0.210993
933,-0.667,0.210993
934,-0.666,0.210993
935,-0.665,0.210993
936,-0.664,0.210993
937,-0.663,0.210993
938,-0.662,0.210993
939,-0.661,0.210993
940,-0.66,0.210993
941,-0.659,0.210993
942,-0.658,0.210993
943,-0.657,0.210993
944,-0.656,0.210993
945,-0.655,0.210993
946,-0.654,0.210993
947,-0.653,0.210993
948,-0.652,0.210993
949,-0.651,0.214471
950,-0.65,0.207516
951,-0.649,0.377923
952,-0.648,0.430089
953,-0.647,0.308369
954,-0.646,0.221427
955,-0.645,0.214471
956,-0.644,0.210993
957,-0.643,0.210993
958,-0.642,0.210993
959,-0.641,0.210993
960,-0.64,0.210993
961,-0.639,0.210993
962,-0.638,0.210993
963,-0.637,0.210993
964,-0.636,0.210993
965,-0.635,0.210993
966,-0.634,0.210993
967,-0.633,0.210993
968,-0.632,0.210993
969,-0.631,0.210993
970,-0.63,0.210993
971,-0.629,0.210993
972,-0.628,0.210993
973,-0.627,0.210993
974,-0.626,0.210993
975,-0.625,0.210993
976,-0.624,0.210993
977,-0.623,0.210993
978,-0.622,0.210993
979,-0.621,0.210993
980,-0.62,0.210993
981,-0.619,0.210993
982,-0.618,0.210993
983,-0.617,0.210993
984,-0.616,0.210993
985,-0.615,0.210993
986,-0.614,0.210993
987,-0.613,0.210993
988,-0.612,0.210993
989,-0.611,0.210993
990,-0.61,0.210993
991,-0.609,0.210993
992,-0.608,0.210993
993,-0.607,0.210993
994,-0.606,0.210993
995,-0.605,0.210993
996,-0.604,0.210993
997,-0.603,0.210993
998,-0.602,0.210993
999,-0.601,0.214471
1000,-0.6,0.209255
1001,-0.599,0.377923
1002,-0.598,0.430089
