mcu_aes_accel.csv

;Scopy version,f4beeb1
;Exported on,mardi fevrier 24/02/2026
;Device,M2K
;Nr of samples,3200
;Sample rate,1000
;Tool,Oscilloscope
;Additional Information,
Sample,Time(S),CH1(V)
0,-1.6,0.209255
1,-1.599,0.209255
2,-1.598,0.209255
3,-1.597,0.209255
4,-1.596,0.209255
5,-1.595,0.209255
6,-1.594,0.209255
7,-1.593,0.209255
8,-1.592,0.209255
9,-1.591,0.209255
10,-1.59,0.209255
11,-1.589,0.209255
12,-1.588,0.209255
13,-1.587,0.209255
14,-1.586,0.209255
15,-1.585,0.209255
16,-1.584,0.209255
17,-1.583,0.209255
18,-1.582,0.209255
19,-1.581,0.209255
20,-1.58,0.209255
21,-1.579,0.209255
22,-1.578,0.209255
23,-1.577,0.209255
24,-1.576,0.209255
25,-1.575,0.209255
26,-1.574,0.209255
27,-1.573,0.209255
28,-1.572,0.209255
29,-1.571,0.209255
30,-1.57,0.209255
31,-1.569,0.209255
32,-1.568,0.209255
33,-1.567,0.212732
34,-1.566,0.210993
35,-1.565,0.384879
36,-1.564,0.426611
37,-1.563,0.294458
38,-1.562,0.219688
39,-1.561,0.209255
40,-1.56,0.209255
41,-1.559,0.209255
42,-1.558,0.209255
43,-1.557,0.209255
44,-1.556,0.209255
45,-1.555,0.209255
46,-1.554,0.209255
47,-1.553,0.209255
48,-1.552,0.209255
49,-1.551,0.209255
50,-1.55,0.209255
51,-1.549,0.209255
52,-1.548,0.209255
53,-1.547,0.209255
54,-1.546,0.209255
55,-1.545,0.209255
56,-1.544,0.209255
57,-1.543,0.209255
58,-1.542,0.209255
59,-1.541,0.209255
60,-1.54,0.209255
61,-1.539,0.209255
62,-1.538,0.209255
63,-1.537,0.209255
64,-1.536,0.209255
65,-1.535,0.209255
66,-1.534,0.209255
67,-1.533,0.209255
68,-1.532,0.209255
69,-1.531,0.209255
70,-1.53,0.209255
71,-1.529,0.209255
72,-1.528,0.209255
73,-1.527,0.209255
74,-1.526,0.209255
75,-1.525,0.209255
76,-1.524,0.209255
77,-1.523,0.209255
78,-1.522,0.209255
79,-1.521,0.209255
80,-1.52,0.209255
81,-1.519,0.209255
82,-1.518,0.209255
83,-1.517,0.212732
84,-1.516,0.212732
85,-1.515,0.388356
86,-1.514,0.426611
87,-1.513,0.290981
88,-1.512,0.219688
89,-1.511,0.209255
90,-1.51,0.209255
91,-1.509,0.209255
92,-1.508,0.209255
93,-1.507,0.209255
94,-1.506,0.209255
95,-1.505,0.209255
96,-1.504,0.209255
97,-1.503,0.209255
98,-1.502,0.209255
99,-1.501,0.209255
100,-1.5,0.209255
101,-1.499,0.209255
102,-1.498,0.209255
103,-1.497,0.209255
104,-1.496,0.209255
105,-1.495,0.209255
106,-1.494,0.209255
107,-1.493,0.209255
108,-1.492,0.209255
109,-1.491,0.209255
110,-1.49,0.209255
111,-1.489,0.209255
112,-1.488,0.209255
113,-1.487,0.209255
114,-1.486,0.209255
115,-1.485,0.209255
116,-1.484,0.209255
117,-1.483,0.209255
118,-1.482,0.209255
119,-1.481,0.209255
120,-1.48,0.209255
121,-1.479,0.209255
122,-1.478,0.209255
123,-1.477,0.209255
124,-1.476,0.209255
125,-1.475,0.209255
126,-1.474,0.209255
127,-1.473,0.209255
128,-1.472,0.209255
129,-1.471,0.209255
130,-1.47,0.209255
131,-1.469,0.209255
132,-1.468,0.209255
133,-1.467,0.212732
134,-1.466,0.212732
135,-1.465,0.391834
136,-1.464,0.426611
137,-1.463,0.290981
138,-1.462,0.217949
139,-1.461,0.209255
140,-1.46,0.209255
141,-1.459,0.209255
142,-1.458,0.209255
143,-1.457,0.209255
144,-1.456,0.209255
145,-1.455,0.209255
146,-1.454,0.209255
147,-1.453,0.209255
148,-1.452,0.209255
149,-1.451,0.209255
150,-1.45,0.209255
151,-1.449,0.209255
152,-1.448,0.209255
153,-1.447,0.209255
154,-1.446,0.209255
155,-1.445,0.209255
156,-1.444,0.209255
157,-1.443,0.209255
158,-1.442,0.209255
159,-1.441,0.209255
160,-1.44,0.209255
161,-1.439,0.209255
162,-1.438,0.209255
163,-1.437,0.209255
164,-1.436,0.209255
165,-1.435,0.209255
166,-1.434,0.209255
167,-1.433,0.209255
168,-1.432,0.209255
169,-1.431,0.209255
170,-1.43,0.209255
171,-1.429,0.209255
172,-1.428,0.209255
173,-1.427,0.209255
174,-1.426,0.209255
175,-1.425,0.209255
176,-1.424,0.209255
177,-1.423,0.209255
178,-1.422,0.209255
179,-1.421,0.209255
180,-1.42,0.209255
181,-1.419,0.209255
182,-1.418,0.209255
183,-1.417,0.212732
184,-1.416,0.214471
185,-1.415,0.391834
186,-1.414,0.426611
187,-1.413,0.285764
188,-1.412,0.217949
189,-1.411,0.210993
190,-1.41,0.209255
191,-1.409,0.209255
192,-1.408,0.209255
193,-1.407,0.209255
194,-1.406,0.209255
195,-1.405,0.209255
196,-1.404,0.209255
197,-1.403,0.209255
198,-1.402,0.209255
199,-1.401,0.209255
200,-1.4,0.209255
201,-1.399,0.209255
202,-1.398,0.209255
203,-1.397,0.209255
204,-1.396,0.209255
205,-1.395,0.209255
206,-1.394,0.209255
207,-1.393,0.209255
208,-1.392,0.209255
209,-1.391,0.209255
210,-1.39,0.209255
211,-1.389,0.209255
212,-1.388,0.209255
213,-1.387,0.209255
214,-1.386,0.209255
215,-1.385,0.209255
216,-1.384,0.209255
217,-1.383,0.209255
218,-1.382,0.209255
219,-1.381,0.209255
220,-1.38,0.209255
221,-1.379,0.209255
222,-1.378,0.209255
223,-1.377,0.209255
224,-1.376,0.209255
225,-1.375,0.209255
226,-1.374,0.209255
227,-1.373,0.209255
228,-1.372,0.209255
229,-1.371,0.209255
230,-1.37,0.209255
231,-1.369,0.209255
232,-1.368,0.209255
233,-1.367,0.212732
234,-1.366,0.21621
235,-1.365,0.395312
236,-1.364,0.424872
237,-1.363,0.284025
238,-1.362,0.217949
239,-1.361,0.210993
240,-1.36,0.209255
241,-1.359,0.209255
242,-1.358,0.209255
243,-1.357,0.209255
244,-1.356,0.209255
245,-1.355,0.209255
246,-1.354,0.209255
247,-1.353,0.209255
248,-1.352,0.209255
249,-1.351,0.209255
250,-1.35,0.209255
251,-1.349,0.209255
252,-1.348,0.209255
253,-1.347,0.209255
254,-1.346,0.209255
255,-1.345,0.209255
256,-1.344,0.209255
257,-1.343,0.209255
258,-1.342,0.209255
259,-1.341,0.209255
260,-1.34,0.209255
261,-1.339,0.209255
262,-1.338,0.209255
263,-1.337,0.209255
264,-1.336,0.209255
265,-1.335,0.209255
266,-1.334,0.209255
267,-1.333,0.209255
268,-1.332,0.209255
269,-1.331,0.209255
270,-1.33,0.209255
271,-1.329,0.209255
272,-1.328,0.209255
273,-1.327,0.209255
274,-1.326,0.209255
275,-1.325,0.209255
276,-1.324,0.209255
277,-1.323,0.209255
278,-1.322,0.209255
279,-1.321,0.209255
280,-1.32,0.209255
281,-1.319,0.209255
282,-1.318,0.209255
283,-1.317,0.210993
284,-1.316,0.217949
285,-1.315,0.395312
286,-1.314,0.416178
287,-1.313,0.407484
288,-1.312,0.438783
289,-1.311,0.440522
290,-1.31,0.442261
291,-1.309,0.438783
292,-1.308,0.442261
293,-1.307,0.442261
294,-1.306,0.442261
295,-1.305,0.442261
296,-1.304,0.442261
297,-1.303,0.442261
298,-1.302,0.442261
299,-1.301,0.442261
300,-1.3,0.442261
301,-1.299,0.442261
302,-1.298,0.442261
303,-1.297,0.442261
304,-1.296,0.442261
305,-1.295,0.438783
306,-1.294,0.443999
307,-1.293,0.440522
308,-1.292,0.442261
309,-1.291,0.440522
310,-1.29,0.442261
311,-1.289,0.440522
312,-1.288,0.442261
313,-1.287,0.440522
314,-1.286,0.442261
315,-1.285,0.442261
316,-1.284,0.442261
317,-1.283,0.442261
318,-1.282,0.442261
319,-1.281,0.442261
320,-1.28,0.442261
321,-1.279,0.440522
322,-1.278,0.442261
323,-1.277,0.440522
324,-1.276,0.442261
325,-1.275,0.440522
326,-1.274,0.443999
327,-1.273,0.398789
328,-1.272,0.407484
329,-1.271,0.424872
330,-1.27,0.384879
331,-1.269,0.224904
332,-1.268,0.209255
333,-1.267,0.205777
334,-1.266,0.205777
335,-1.265,0.205777
336,-1.264,0.205777
337,-1.263,0.205777
338,-1.262,0.205777
339,-1.261,0.202299
340,-1.26,0.202299
341,-1.259,0.202299
342,-1.258,0.202299
343,-1.257,0.202299
344,-1.256,0.202299
345,-1.255,0.207516
346,-1.254,0.233599
347,-1.253,0.324019
348,-1.252,0.214471
349,-1.251,0.205777
350,-1.25,0.205777
351,-1.249,0.205777
352,-1.248,0.202299
353,-1.247,0.207516
354,-1.246,0.202299
355,-1.245,0.205777
356,-1.244,0.207516
357,-1.243,0.202299
358,-1.242,0.202299
359,-1.241,0.205777
360,-1.24,0.205777
361,-1.239,0.195344
362,-1.238,0.346624
363,-1.237,0.230121
364,-1.236,0.209255
365,-1.235,0.207516
366,-1.234,0.202299
367,-1.233,0.202299
368,-1.232,0.202299
369,-1.231,0.202299
370,-1.23,0.202299
371,-1.229,0.202299
372,-1.228,0.202299
373,-1.227,0.202299
374,-1.226,0.202299
375,-1.225,0.205777
376,-1.224,0.198821
377,-1.223,0.292719
378,-1.222,0.273592
379,-1.221,0.210993
380,-1.22,0.207516
381,-1.219,0.205777
382,-1.218,0.202299
383,-1.217,0.202299
384,-1.216,0.202299
385,-1.215,0.202299
386,-1.214,0.202299
387,-1.213,0.202299
388,-1.212,0.202299
389,-1.211,0.202299
390,-1.21,0.202299
391,-1.209,0.207516
392,-1.208,0.221427
393,-1.207,0.332713
394,-1.206,0.21621
395,-1.205,0.207516
396,-1.204,0.205777
397,-1.203,0.205777
398,-1.202,0.202299
399,-1.201,0.202299
400,-1.2,0.202299
401,-1.199,0.202299
402,-1.198,0.202299
403,-1.197,0.202299
404,-1.196,0.202299
405,-1.195,0.202299
406,-1.194,0.205777
407,-1.193,0.193605
408,-1.192,0.339668
409,-1.191,0.235337
410,-1.19,0.209255
411,-1.189,0.205777
412,-1.188,0.205777
413,-1.187,0.202299
414,-1.186,0.202299
415,-1.185,0.202299
416,-1.184,0.202299
417,-1.183,0.202299
418,-1.182,0.202299
419,-1.181,0.202299
420,-1.18,0.202299
421,-1.179,0.205777
422,-1.178,0.20056
423,-1.177,0.27707
424,-1.176,0.285764
425,-1.175,0.212732
426,-1.174,0.207516
427,-1.173,0.205777
428,-1.172,0.202299
429,-1.171,0.202299
430,-1.17,0.202299
431,-1.169,0.202299
432,-1.168,0.202299
433,-1.167,0.202299
434,-1.166,0.202299
435,-1.165,0.202299
436,-1.164,0.202299
437,-1.163,0.207516
438,-1.162,0.210993
439,-1.161,0.343146
440,-1.16,0.217949
441,-1.159,0.207516
442,-1.158,0.207516
443,-1.157,0.202299
444,-1.156,0.202299
445,-1.155,0.202299
446,-1.154,0.202299
447,-1.153,0.202299
448,-1.152,0.202299
449,-1.151,0.202299
450,-1.15,0.202299
451,-1.149,0.202299
452,-1.148,0.202299
453,-1.147,0.20056
454,-1.146,0.252726
455,-1.145,0.209255
456,-1.144,0.205777
457,-1.143,0.205777
458,-1.142,0.21621
459,-1.141,0.205777
460,-1.14,0.205777
461,-1.139,0.202299
462,-1.138,0.207516
463,-1.137,0.210993
464,-1.136,0.36749
465,-1.135,0.393573
466,-1.134,0.395312
467,-1.133,0.395312
468,-1.132,0.395312
469,-1.131,0.395312
470,-1.13,0.395312
471,-1.129,0.395312
472,-1.128,0.395312
473,-1.127,0.395312
474,-1.126,0.395312
475,-1.125,0.395312
476,-1.124,0.393573
477,-1.123,0.402267
478,-1.122,0.287503
479,-1.121,0.217949
480,-1.12,0.209255
481,-1.119,0.209255
482,-1.118,0.209255
483,-1.117,0.209255
484,-1.116,0.209255
485,-1.115,0.209255
486,-1.114,0.209255
487,-1.113,0.209255
488,-1.112,0.209255
489,-1.111,0.209255
490,-1.11,0.209255
491,-1.109,0.209255
492,-1.108,0.209255
493,-1.107,0.209255
494,-1.106,0.209255
495,-1.105,0.209255
496,-1.104,0.209255
497,-1.103,0.209255
498,-1.102,0.209255
499,-1.101,0.209255
500,-1.1,0.209255
501,-1.099,0.209255
502,-1.098,0.209255
503,-1.097,0.209255
504,-1.096,0.209255
505,-1.095,0.209255
506,-1.094,0.209255
507,-1.093,0.209255
508,-1.092,0.209255
509,-1.091,0.209255
510,-1.09,0.209255
511,-1.089,0.209255
512,-1.088,0.209255
513,-1.087,0.209255
514,-1.086,0.209255
515,-1.085,0.209255
516,-1.084,0.209255
517,-1.083,0.209255
518,-1.082,0.209255
519,-1.081,0.209255
520,-1.08,0.209255
521,-1.079,0.209255
522,-1.078,0.209255
523,-1.077,0.209255
524,-1.076,0.209255
525,-1.075,0.209255
526,-1.074,0.210993
527,-1.073,0.202299
528,-1.072,0.343146
529,-1.071,0.426611
530,-1.07,0.33793
531,-1.069,0.221427
532,-1.068,0.212732
533,-1.067,0.209255
534,-1.066,0.209255
535,-1.065,0.209255
536,-1.064,0.209255
537,-1.063,0.209255
538,-1.062,0.209255
539,-1.061,0.209255
540,-1.06,0.209255
541,-1.059,0.209255
542,-1.058,0.209255
543,-1.057,0.209255
544,-1.056,0.209255
545,-1.055,0.209255
546,-1.054,0.209255
547,-1.053,0.209255
548,-1.052,0.209255
549,-1.051,0.209255
550,-1.05,0.209255
551,-1.049,0.209255
552,-1.048,0.209255
553,-1.047,0.209255
554,-1.046,0.209255
555,-1.045,0.209255
556,-1.044,0.209255
557,-1.043,0.209255
558,-1.042,0.209255
559,-1.041,0.209255
560,-1.04,0.209255
561,-1.039,0.209255
562,-1.038,0.209255
563,-1.037,0.209255
564,-1.036,0.209255
565,-1.035,0.209255
566,-1.034,0.209255
567,-1.033,0.209255
568,-1.032,0.209255
569,-1.031,0.209255
570,-1.03,0.209255
571,-1.029,0.209255
572,-1.028,0.209255
573,-1.027,0.209255
574,-1.026,0.209255
575,-1.025,0.209255
576,-1.024,0.210993
577,-1.023,0.202299
578,-1.022,0.346624
579,-1.021,0.42835
580,-1.02,0.33793
581,-1.019,0.221427
582,-1.018,0.212732
583,-1.017,0.209255
584,-1.016,0.209255
585,-1.015,0.209255
586,-1.014,0.209255
587,-1.013,0.209255
588,-1.012,0.209255
589,-1.011,0.209255
590,-1.01,0.209255
591,-1.009,0.209255
592,-1.008,0.209255
593,-1.007,0.209255
594,-1.006,0.209255
595,-1.005,0.209255
596,-1.004,0.209255
597,-1.003,0.209255
598,-1.002,0.209255
599,-1.001,0.209255
600,-1,0.209255
601,-0.999,0.209255
602,-0.998,0.209255
603,-0.997,0.209255
604,-0.996,0.209255
605,-0.995,0.209255
606,-0.994,0.209255
607,-0.993,0.209255
608,-0.992,0.209255
609,-0.991,0.209255
610,-0.99,0.209255
611,-0.989,0.209255
612,-0.988,0.209255
613,-0.987,0.209255
614,-0.986,0.209255
615,-0.985,0.209255
616,-0.984,0.209255
617,-0.983,0.209255
618,-0.982,0.209255
619,-0.981,0.209255
620,-0.98,0.209255
621,-0.979,0.209255
622,-0.978,0.209255
623,-0.977,0.209255
624,-0.976,0.209255
625,-0.975,0.209255
626,-0.974,0.210993
627,-0.973,0.20056
628,-0.972,0.348363
629,-0.971,0.42835
630,-0.97,0.334452
631,-0.969,0.223165
632,-0.968,0.212732
633,-0.967,0.209255
634,-0.966,0.209255
635,-0.965,0.209255
636,-0.964,0.209255
637,-0.963,0.209255
638,-0.962,0.209255
639,-0.961,0.209255
640,-0.96,0.209255
641,-0.959,0.209255
642,-0.958,0.209255
643,-0.957,0.209255
644,-0.956,0.209255
645,-0.955,0.209255
646,-0.954,0.209255
647,-0.953,0.209255
648,-0.952,0.209255
649,-0.951,0.209255
650,-0.95,0.209255
651,-0.949,0.209255
652,-0.948,0.209255
653,-0.947,0.209255
654,-0.946,0.209255
655,-0.945,0.209255
656,-0.944,0.209255
657,-0.943,0.209255
658,-0.942,0.209255
659,-0.941,0.209255
660,-0.94,0.209255
661,-0.939,0.209255
662,-0.938,0.209255
663,-0.937,0.209255
664,-0.936,0.209255
665,-0.935,0.209255
666,-0.934,0.209255
667,-0.933,0.209255
668,-0.932,0.209255
669,-0.931,0.209255
670,-0.93,0.209255
671,-0.929,0.209255
672,-0.928,0.209255
673,-0.927,0.209255
674,-0.926,0.209255
675,-0.925,0.209255
676,-0.924,0.210993
677,-0.923,0.20056
678,-0.922,0.35184
679,-0.921,0.42835
680,-0.92,0.334452
681,-0.919,0.221427
682,-0.918,0.212732
683,-0.917,0.209255
684,-0.916,0.209255
685,-0.915,0.209255
686,-0.914,0.209255
687,-0.913,0.209255
688,-0.912,0.209255
689,-0.911,0.209255
690,-0.91,0.209255
691,-0.909,0.209255
692,-0.908,0.209255
693,-0.907,0.209255
694,-0.906,0.209255
695,-0.905,0.209255
696,-0.904,0.209255
697,-0.903,0.209255
698,-0.902,0.209255
699,-0.901,0.209255
700,-0.9,0.209255
701,-0.899,0.209255
702,-0.898,0.209255
703,-0.897,0.209255
704,-0.896,0.209255
705,-0.895,0.209255
706,-0.894,0.209255
707,-0.893,0.209255
708,-0.892,0.209255
709,-0.891,0.209255
710,-0.89,0.209255
711,-0.889,0.209255
712,-0.888,0.209255
713,-0.887,0.209255
714,-0.886,0.209255
715,-0.885,0.209255
716,-0.884,0.209255
717,-0.883,0.209255
718,-0.882,0.209255
719,-0.881,0.209255
720,-0.88,0.209255
721,-0.879,0.209255
722,-0.878,0.209255
723,-0.877,0.209255
724,-0.876,0.209255
725,-0.875,0.209255
726,-0.874,0.210993
727,-0.873,0.20056
728,-0.872,0.35184
729,-0.871,0.430089
730,-0.87,0.330974
731,-0.869,0.223165
732,-0.868,0.212732
733,-0.867,0.209255
734,-0.866,0.209255
735,-0.865,0.209255
736,-0.864,0.209255
737,-0.863,0.209255
738,-0.862,0.209255
739,-0.861,0.209255
740,-0.86,0.209255
741,-0.859,0.209255
742,-0.858,0.209255
743,-0.857,0.209255
744,-0.856,0.209255
745,-0.855,0.209255
746,-0.854,0.209255
747,-0.853,0.209255
748,-0.852,0.209255
749,-0.851,0.209255
750,-0.85,0.209255
751,-0.849,0.209255
752,-0.848,0.209255
753,-0.847,0.209255
754,-0.846,0.209255
755,-0.845,0.209255
756,-0.844,0.209255
757,-0.843,0.209255
758,-0.842,0.209255
759,-0.841,0.209255
760,-0.84,0.209255
761,-0.839,0.209255
762,-0.838,0.209255
763,-0.837,0.209255
764,-0.836,0.209255
765,-0.835,0.209255
766,-0.834,0.209255
767,-0.833,0.209255
768,-0.832,0.209255
769,-0.831,0.209255
770,-0.83,0.209255
771,-0.829,0.209255
772,-0.828,0.209255
773,-0.827,0.209255
774,-0.826,0.209255
775,-0.825,0.209255
776,-0.824,0.212732
777,-0.823,0.202299
778,-0.822,0.353579
779,-0.821,0.42835
780,-0.82,0.330974
781,-0.819,0.221427
782,-0.818,0.212732
783,-0.817,0.209255
784,-0.816,0.209255
785,-0.815,0.209255
786,-0.814,0.209255
787,-0.813,0.209255
788,-0.812,0.209255
789,-0.811,0.209255
790,-0.81,0.209255
791,-0.809,0.209255
792,-0.808,0.209255
793,-0.807,0.209255
794,-0.806,0.209255
795,-0.805,0.209255
796,-0.804,0.209255
797,-0.803,0.209255
798,-0.802,0.209255
799,-0.801,0.209255
800,-0.8,0.209255
801,-0.799,0.209255
802,-0.798,0.209255
803,-0.797,0.209255
804,-0.796,0.209255
805,-0.795,0.209255
806,-0.794,0.209255
807,-0.793,0.209255
808,-0.792,0.209255
809,-0.791,0.209255
810,-0.79,0.209255
811,-0.789,0.209255
812,-0.788,0.209255
813,-0.787,0.209255
814,-0.786,0.209255
815,-0.785,0.209255
816,-0.784,0.209255
817,-0.783,0.209255
818,-0.782,0.209255
819,-0.781,0.209255
820,-0.78,0.209255
821,-0.779,0.209255
822,-0.778,0.209255
823,-0.777,0.209255
824,-0.776,0.209255
825,-0.775,0.209255
826,-0.774,0.212732
827,-0.773,0.20056
828,-0.772,0.357057
829,-0.771,0.42835
830,-0.77,0.327496
831,-0.769,0.223165
832,-0.768,0.212732
833,-0.767,0.209255
834,-0.766,0.209255
835,-0.765,0.209255
836,-0.764,0.209255
837,-0.763,0.209255
838,-0.762,0.209255
839,-0.761,0.209255
840,-0.76,0.209255
841,-0.759,0.209255
842,-0.758,0.209255
843,-0.757,0.209255
844,-0.756,0.209255
845,-0.755,0.209255
846,-0.754,0.209255
847,-0.753,0.209255
848,-0.752,0.209255
849,-0.751,0.209255
850,-0.75,0.209255
851,-0.749,0.209255
852,-0.748,0.209255
853,-0.747,0.209255
854,-0.746,0.209255
855,-0.745,0.209255
856,-0.744,0.209255
857,-0.743,0.209255
858,-0.742,0.209255
859,-0.741,0.209255
860,-0.74,0.209255
861,-0.739,0.209255
862,-0.738,0.209255
863,-0.737,0.209255
864,-0.736,0.209255
865,-0.735,0.209255
866,-0.734,0.209255
867,-0.733,0.209255
868,-0.732,0.209255
869,-0.731,0.209255
870,-0.73,0.209255
871,-0.729,0.209255
872,-0.728,0.209255
873,-0.727,0.209255
874,-0.726,0.209255
875,-0.725,0.209255
876,-0.724,0.210993
877,-0.723,0.202299
878,-0.722,0.360535
879,-0.721,0.430089
880,-0.72,0.324019
881,-0.719,0.221427
882,-0.718,0.212732
883,-0.717,0.209255
884,-0.716,0.209255
885,-0.715,0.209255
886,-0.714,0.209255
887,-0.713,0.209255
888,-0.712,0.209255
889,-0.711,0.209255
890,-0.71,0.209255
891,-0.709,0.209255
892,-0.708,0.209255
893,-0.707,0.209255
894,-0.706,0.209255
895,-0.705,0.209255
896,-0.704,0.209255
897,-0.703,0.209255
898,-0.702,0.209255
899,-0.701,0.209255
900,-0.7,0.209255
901,-0.699,0.209255
902,-0.698,0.209255
903,-0.697,0.209255
904,-0.696,0.209255
905,-0.695,0.209255
906,-0.694,0.209255
907,-0.693,0.209255
908,-0.692,0.209255
909,-0.691,0.209255
910,-0.69,0.209255
911,-0.689,0.209255
912,-0.688,0.209255
913,-0.687,0.209255
914,-0.686,0.209255
915,-0.685,0.209255
916,-0.684,0.209255
917,-0.683,0.209255
918,-0.682,0.209255
919,-0.681,0.209255
920,-0.68,0.209255
921,-0.679,0.209255
922,-0.678,0.209255
923,-0.677,0.209255
924,-0.676,0.209255
925,-0.675,0.209255
926,-0.674,0.210993
927,-0.673,0.205777
928,-0.672,0.360535
929,-0.671,0.42835
930,-0.67,0.32228
931,-0.669,0.221427
932,-0.668,0.212732
933,-0.667,0.209255
934,-0.666,0.209255
935,-0.665,0.209255
936,-0.664,0.209255
937,-0.663,0.209255
938,-0.662,0.209255
939,-0.661,0.209255
940,-0.66,0.209255
941,-0.659,0.209255
942,-0.658,0.209255
943,-0.657,0.209255
944,-0.656,0.209255
945,-0.655,0.209255
946,-0.654,0.209255
947,-0.653,0.209255
948,-0.652,0.209255
949,-0.651,0.209255
950,-0.65,0.209255
951,-0.649,0.209255
952,-0.648,0.209255
953,-0.647,0.209255
954,-0.646,0.209255
955,-0.645,0.209255
956,-0.644,0.209255
957,-0.643,0.209255
958,-0.642,0.209255
959,-0.641,0.209255
960,-0.64,0.209255
961,-0.639,0.209255
962,-0.638,0.209255
963,-0.637,0.209255
964,-0.636,0.209255
965,-0.635,0.209255
966,-0.634,0.209255
967,-0.633,0.209255
968,-0.632,0.209255
969,-0.631,0.209255
970,-0.63,0.209255
971,-0.629,0.209255
972,-0.628,0.209255
973,-0.627,0.209255
974,-0.626,0.209255
975,-0.625,0.209255
976,-0.624,0.210993
977,-0.623,0.205777
978,-0.622,0.365751
979,-0.621,0.42835
980,-0.62,0.317063
981,-0.619,0.221427
982,-0.618,0.212732
983,-0.617,0.209255
984,-0.616,0.209255
985,-0.615,0.209255
986,-0.614,0.209255
987,-0.613,0.209255
988,-0.612,0.209255
989,-0.611,0.209255
990,-0.61,0.209255
991,-0.609,0.209255
992,-0.608,0.209255
993,-0.607,0.209255
994,-0.606,0.209255
995,-0.605,0.209255
996,-0.604,0.209255
997,-0.603,0.209255
998,-0.602,0.209255
999,-0.601,0.209255
1000,-0.6,0.209255
1001,-0.599,0.209255
1002,-0.598,0.209255
